ply
format ascii 1.0
comment Created by Blender 2.80 (sub 75) - www.blender.org, source file: ''
element vertex 24
property float x
property float y
property float z
property float nx
property float ny
property float nz
property float s
property float t
element face 12
property list uchar uint vertex_indices
end_header
-1.000000 1.000000 0.060137 0.000000 0.000000 1.000000 0.625000 0.000000
1.000000 -1.000000 0.060137 0.000000 0.000000 1.000000 0.375000 0.250000
1.000000 1.000000 0.060137 0.000000 0.000000 1.000000 0.375000 0.000000
1.000000 -1.000000 0.060137 0.000000 -1.000000 0.000000 0.625000 0.250000
-1.000000 -1.000000 0.011768 0.000000 -1.000000 0.000000 0.375000 0.500000
1.000000 -1.000000 0.011768 0.000000 -1.000000 0.000000 0.375000 0.250000
-1.000000 -1.000000 0.060137 -1.000000 0.000000 0.000000 0.625000 0.500000
-1.000000 1.000000 0.011768 -1.000000 0.000000 0.000000 0.375000 0.750000
-1.000000 -1.000000 0.011768 -1.000000 0.000000 0.000000 0.375000 0.500000
1.000000 1.000000 0.011768 0.000000 0.000000 -1.000000 0.625000 0.750000
-1.000000 -1.000000 0.011768 0.000000 0.000000 -1.000000 0.375000 1.000000
-1.000000 1.000000 0.011768 0.000000 0.000000 -1.000000 0.375000 0.750000
1.000000 1.000000 0.060137 1.000000 0.000000 -0.000000 0.375000 0.500000
1.000000 -1.000000 0.011768 1.000000 0.000000 -0.000000 0.125000 0.750000
1.000000 1.000000 0.011768 1.000000 0.000000 -0.000000 0.125000 0.500000
-1.000000 1.000000 0.060137 0.000000 1.000000 -0.000000 0.875000 0.500000
1.000000 1.000000 0.011768 0.000000 1.000000 -0.000000 0.625000 0.750000
-1.000000 1.000000 0.011768 0.000000 1.000000 -0.000000 0.625000 0.500000
-1.000000 -1.000000 0.060137 0.000000 -0.000000 1.000000 0.625000 0.250000
-1.000000 -1.000000 0.060137 0.000000 -1.000000 0.000000 0.625000 0.500000
-1.000000 1.000000 0.060137 -1.000000 0.000000 0.000000 0.625000 0.750000
1.000000 -1.000000 0.011768 0.000000 0.000000 -1.000000 0.625000 1.000000
1.000000 -1.000000 0.060137 1.000000 0.000000 0.000000 0.375000 0.750000
1.000000 1.000000 0.060137 0.000000 1.000000 -0.000000 0.875000 0.750000
3 0 1 2
3 3 4 5
3 6 7 8
3 9 10 11
3 12 13 14
3 15 16 17
3 0 18 1
3 3 19 4
3 6 20 7
3 9 21 10
3 12 22 13
3 15 23 16
